{
    "name": "MacRumors",
    "items": [
        {
            "id": 1,
            "name": "Trump Signs Executive Order Giving ByteDance 90 Days to Sell US TikTok Business",
            "sorce": "https://www.macrumors.com/2020/08/15/tiktok-90-days/"
        },
        {
            "id": 2,
            "name": "iOS 14 and watchOS 7 Sleep Features: Sleep Mode, Wind Down, Sleep Tracking and More",
            "sorce": "https://www.macrumors.com/guide/sleep-tracking//"
        },
        {
            "id": 3,
            "name": "Review: Logitech's Folio Touch With Trackpad for iPad Pro is an Affordable Alternative to Apple's Magic Keyboard",
            "sorce": "https://www.macrumors.com/review/logitech-folio-touch-ipad-pro/"
        },
        {
            "id": 4,
            "name": "Facebook Claims Apple is Damaging Small Businesses by Collecting Fees From Paid Facebook Events",
            "sorce": "https://www.macrumors.com/2020/08/14/facebook-apple-small-businesses-damage-fees/"
        },
        {
            "id": 5,
            "name": "MacRumors Giveaway: Win a USB-C Wireless Charging Dock for AirPods From Satechi",
            "sorce": "https://www.macrumors.com/2020/08/14/macrumors-giveaway-satechi-airpods-charging-dock/"
        },
        {
            "id": 6,
            "name": "Apple Inks Deal for Spy Romance Film Starring Idris Elba",
            "sorce": "https://www.macrumors.com/2020/08/14/apple-tv-plus-spy-film-idris-elba/"
        }
    ]
}
