{
    "name": "habr",
    "items": [
        {
            "id": 1,
            "name": "5 публикаций, изменивших мир",
            "sorce": "https://habr.com/ru/company/habr/blog/514604/"
        },
        {
            "id": 2,
            "name": "Администрация США запретила сделку по покупке компанией ByteDance музыкального сервиса Musical.ly",
            "sorce": "https://habr.com/ru/news/t/515232/"
        },
        {
            "id": 3,
            "name": "Разработчики соцсети «Аура» сообщили о закрытии проекта",
            "sorce": "https://habr.com/ru/news/t/515230//"
        },
        {
            "id": 4,
            "name": "Telegram запустил видеозвонки на Android, iOS на подходе",
            "sorce": "https://habr.com/ru/news/t/515214/"
        },
        {
            "id": 5,
            "name": "Microsoft запустила портал о проектах компании с открытым исходным кодом — opensource.microsoft.com",
            "sorce": "https://habr.com/ru/news/t/515202/"
        },
        {
            "id": 6,
            "name": "Google ввела в поисковую выдачу информацию о доступности путешествий в связи с коронавирусом",
            "sorce": "https://habr.com/ru/news/t/515208/"
        }
    ]
}